[2023-05-10T01:22:39.510+0400][gc,heap] Heap region size: 1M
[2023-05-10T01:22:39.519+0400][gc     ] Using G1
[2023-05-10T01:22:39.519+0400][gc,heap,coops] Heap address: 0x00000000c0000000, size: 1024 MB, Compressed Oops mode: 32-bit
[2023-05-10T01:22:39.519+0400][gc,cds       ] Mark closed archive regions in map: [0x00000000fff00000, 0x00000000fff6aff8]
[2023-05-10T01:22:39.519+0400][gc,cds       ] Mark open archive regions in map: [0x00000000ffe00000, 0x00000000ffe47ff8]
[2023-05-10T01:22:40.354+0400][gc,start     ] GC(0) Pause Young (Normal) (G1 Evacuation Pause)
[2023-05-10T01:22:40.355+0400][gc,task      ] GC(0) Using 8 workers of 8 for evacuation
[2023-05-10T01:22:40.362+0400][gc,phases    ] GC(0)   Pre Evacuate Collection Set: 0,0ms
[2023-05-10T01:22:40.362+0400][gc,phases    ] GC(0)   Evacuate Collection Set: 6,2ms
[2023-05-10T01:22:40.362+0400][gc,phases    ] GC(0)   Post Evacuate Collection Set: 0,4ms
[2023-05-10T01:22:40.362+0400][gc,phases    ] GC(0)   Other: 1,0ms
[2023-05-10T01:22:40.362+0400][gc,heap      ] GC(0) Eden regions: 51->0(44)
[2023-05-10T01:22:40.362+0400][gc,heap      ] GC(0) Survivor regions: 0->7(7)
[2023-05-10T01:22:40.362+0400][gc,heap      ] GC(0) Old regions: 2->2
[2023-05-10T01:22:40.362+0400][gc,heap      ] GC(0) Humongous regions: 0->0
[2023-05-10T01:22:40.362+0400][gc,metaspace ] GC(0) Metaspace: 14313K(15104K)->14313K(15104K) NonClass: 12313K(12800K)->12313K(12800K) Class: 1999K(2304K)->1999K(2304K)
[2023-05-10T01:22:40.362+0400][gc           ] GC(0) Pause Young (Normal) (G1 Evacuation Pause) 51M->7M(1024M) 7,778ms
[2023-05-10T01:22:40.362+0400][gc,cpu       ] GC(0) User=0,04s Sys=0,00s Real=0,00s
[2023-05-10T01:22:40.700+0400][gc,start     ] GC(1) Pause Young (Concurrent Start) (Metadata GC Threshold)
[2023-05-10T01:22:40.700+0400][gc,task      ] GC(1) Using 8 workers of 8 for evacuation
[2023-05-10T01:22:40.709+0400][gc,phases    ] GC(1)   Pre Evacuate Collection Set: 0,1ms
[2023-05-10T01:22:40.709+0400][gc,phases    ] GC(1)   Evacuate Collection Set: 7,8ms
[2023-05-10T01:22:40.709+0400][gc,phases    ] GC(1)   Post Evacuate Collection Set: 0,4ms
[2023-05-10T01:22:40.709+0400][gc,phases    ] GC(1)   Other: 0,2ms
[2023-05-10T01:22:40.709+0400][gc,heap      ] GC(1) Eden regions: 28->0(49)
[2023-05-10T01:22:40.709+0400][gc,heap      ] GC(1) Survivor regions: 7->2(7)
[2023-05-10T01:22:40.709+0400][gc,heap      ] GC(1) Old regions: 2->9
[2023-05-10T01:22:40.709+0400][gc,heap      ] GC(1) Humongous regions: 0->0
[2023-05-10T01:22:40.709+0400][gc,metaspace ] GC(1) Metaspace: 20618K(21248K)->20618K(21248K) NonClass: 17849K(18176K)->17849K(18176K) Class: 2769K(3072K)->2769K(3072K)
[2023-05-10T01:22:40.709+0400][gc           ] GC(1) Pause Young (Concurrent Start) (Metadata GC Threshold) 35M->8M(1024M) 8,607ms
[2023-05-10T01:22:40.709+0400][gc,cpu       ] GC(1) User=0,03s Sys=0,01s Real=0,01s
[2023-05-10T01:22:40.709+0400][gc           ] GC(2) Concurrent Cycle
[2023-05-10T01:22:40.709+0400][gc,marking   ] GC(2) Concurrent Clear Claimed Marks
[2023-05-10T01:22:40.709+0400][gc,marking   ] GC(2) Concurrent Clear Claimed Marks 0,042ms
[2023-05-10T01:22:40.709+0400][gc,marking   ] GC(2) Concurrent Scan Root Regions
[2023-05-10T01:22:40.710+0400][gc,marking   ] GC(2) Concurrent Scan Root Regions 1,225ms
[2023-05-10T01:22:40.710+0400][gc,marking   ] GC(2) Concurrent Mark (1,202s)
[2023-05-10T01:22:40.710+0400][gc,marking   ] GC(2) Concurrent Mark From Roots
[2023-05-10T01:22:40.710+0400][gc,task      ] GC(2) Using 2 workers of 2 for marking
[2023-05-10T01:22:40.714+0400][gc,marking   ] GC(2) Concurrent Mark From Roots 4,320ms
[2023-05-10T01:22:40.714+0400][gc,marking   ] GC(2) Concurrent Preclean
[2023-05-10T01:22:40.715+0400][gc,marking   ] GC(2) Concurrent Preclean 0,170ms
[2023-05-10T01:22:40.715+0400][gc,marking   ] GC(2) Concurrent Mark (1,202s, 1,207s) 4,539ms
[2023-05-10T01:22:40.715+0400][gc,start     ] GC(2) Pause Remark
[2023-05-10T01:22:40.718+0400][gc,stringtable] GC(2) Cleaned string and symbol table, strings: 5127 processed, 0 removed, symbols: 52354 processed, 58 removed
[2023-05-10T01:22:40.718+0400][gc            ] GC(2) Pause Remark 8M->8M(1024M) 3,344ms
[2023-05-10T01:22:40.718+0400][gc,cpu        ] GC(2) User=0,01s Sys=0,00s Real=0,00s
[2023-05-10T01:22:40.718+0400][gc,marking    ] GC(2) Concurrent Rebuild Remembered Sets
[2023-05-10T01:22:40.722+0400][gc,marking    ] GC(2) Concurrent Rebuild Remembered Sets 3,721ms
[2023-05-10T01:22:40.722+0400][gc,start      ] GC(2) Pause Cleanup
[2023-05-10T01:22:40.722+0400][gc            ] GC(2) Pause Cleanup 9M->9M(1024M) 0,238ms
[2023-05-10T01:22:40.722+0400][gc,cpu        ] GC(2) User=0,00s Sys=0,00s Real=0,00s
[2023-05-10T01:22:40.722+0400][gc,marking    ] GC(2) Concurrent Cleanup for Next Mark
[2023-05-10T01:22:40.727+0400][gc,marking    ] GC(2) Concurrent Cleanup for Next Mark 4,705ms
[2023-05-10T01:22:40.727+0400][gc            ] GC(2) Concurrent Cycle 18,305ms
[2023-05-10T01:22:41.309+0400][gc,start      ] GC(3) Pause Young (Normal) (G1 Evacuation Pause)
[2023-05-10T01:22:41.309+0400][gc,task       ] GC(3) Using 8 workers of 8 for evacuation
[2023-05-10T01:22:41.311+0400][gc,phases     ] GC(3)   Pre Evacuate Collection Set: 0,0ms
[2023-05-10T01:22:41.312+0400][gc,phases     ] GC(3)   Evacuate Collection Set: 1,9ms
[2023-05-10T01:22:41.312+0400][gc,phases     ] GC(3)   Post Evacuate Collection Set: 0,3ms
[2023-05-10T01:22:41.312+0400][gc,phases     ] GC(3)   Other: 0,1ms
[2023-05-10T01:22:41.312+0400][gc,heap       ] GC(3) Eden regions: 49->0(47)
[2023-05-10T01:22:41.312+0400][gc,heap       ] GC(3) Survivor regions: 2->4(7)
[2023-05-10T01:22:41.312+0400][gc,heap       ] GC(3) Old regions: 9->9
[2023-05-10T01:22:41.312+0400][gc,heap       ] GC(3) Humongous regions: 129->129
[2023-05-10T01:22:41.312+0400][gc,metaspace  ] GC(3) Metaspace: 29599K(30976K)->29599K(30976K) NonClass: 25764K(26624K)->25764K(26624K) Class: 3834K(4352K)->3834K(4352K)
[2023-05-10T01:22:41.312+0400][gc            ] GC(3) Pause Young (Normal) (G1 Evacuation Pause) 186M->139M(1024M) 2,499ms
[2023-05-10T01:22:41.312+0400][gc,cpu        ] GC(3) User=0,02s Sys=0,00s Real=0,00s
[2023-05-10T01:22:41.676+0400][gc,heap,exit  ] Heap
[2023-05-10T01:22:41.676+0400][gc,heap,exit  ]  garbage-first heap   total 1048576K, used 166724K [0x00000000c0000000, 0x0000000100000000)
[2023-05-10T01:22:41.676+0400][gc,heap,exit  ]   region size 1024K, 28 young (28672K), 4 survivors (4096K)
[2023-05-10T01:22:41.676+0400][gc,heap,exit  ]  Metaspace       used 32943K, capacity 34375K, committed 34560K, reserved 1079296K
[2023-05-10T01:22:41.676+0400][gc,heap,exit  ]   class space    used 4387K, capacity 5038K, committed 5120K, reserved 1048576K
