[2023-05-10T02:24:56.404+0400][gc,heap] Heap region size: 1M
[2023-05-10T02:24:56.413+0400][gc     ] Using G1
[2023-05-10T02:24:56.413+0400][gc,heap,coops] Heap address: 0x00000000c0000000, size: 1024 MB, Compressed Oops mode: 32-bit
[2023-05-10T02:24:56.413+0400][gc,cds       ] Mark closed archive regions in map: [0x00000000fff00000, 0x00000000fff6aff8]
[2023-05-10T02:24:56.413+0400][gc,cds       ] Mark open archive regions in map: [0x00000000ffe00000, 0x00000000ffe47ff8]
[2023-05-10T02:24:57.144+0400][gc,start     ] GC(0) Pause Young (Normal) (G1 Evacuation Pause)
[2023-05-10T02:24:57.145+0400][gc,task      ] GC(0) Using 8 workers of 8 for evacuation
[2023-05-10T02:24:57.152+0400][gc,phases    ] GC(0)   Pre Evacuate Collection Set: 0,0ms
[2023-05-10T02:24:57.152+0400][gc,phases    ] GC(0)   Evacuate Collection Set: 6,2ms
[2023-05-10T02:24:57.152+0400][gc,phases    ] GC(0)   Post Evacuate Collection Set: 0,5ms
[2023-05-10T02:24:57.152+0400][gc,phases    ] GC(0)   Other: 0,7ms
[2023-05-10T02:24:57.152+0400][gc,heap      ] GC(0) Eden regions: 51->0(44)
[2023-05-10T02:24:57.152+0400][gc,heap      ] GC(0) Survivor regions: 0->7(7)
[2023-05-10T02:24:57.152+0400][gc,heap      ] GC(0) Old regions: 2->2
[2023-05-10T02:24:57.152+0400][gc,heap      ] GC(0) Humongous regions: 0->0
[2023-05-10T02:24:57.152+0400][gc,metaspace ] GC(0) Metaspace: 14311K(15104K)->14311K(15104K) NonClass: 12310K(12800K)->12310K(12800K) Class: 2000K(2304K)->2000K(2304K)
[2023-05-10T02:24:57.152+0400][gc           ] GC(0) Pause Young (Normal) (G1 Evacuation Pause) 51M->7M(1024M) 7,402ms
[2023-05-10T02:24:57.152+0400][gc,cpu       ] GC(0) User=0,04s Sys=0,01s Real=0,01s
[2023-05-10T02:24:57.449+0400][gc,start     ] GC(1) Pause Young (Concurrent Start) (Metadata GC Threshold)
[2023-05-10T02:24:57.449+0400][gc,task      ] GC(1) Using 8 workers of 8 for evacuation
[2023-05-10T02:24:57.458+0400][gc,phases    ] GC(1)   Pre Evacuate Collection Set: 0,1ms
[2023-05-10T02:24:57.458+0400][gc,phases    ] GC(1)   Evacuate Collection Set: 7,8ms
[2023-05-10T02:24:57.458+0400][gc,phases    ] GC(1)   Post Evacuate Collection Set: 0,4ms
[2023-05-10T02:24:57.458+0400][gc,phases    ] GC(1)   Other: 0,2ms
[2023-05-10T02:24:57.458+0400][gc,heap      ] GC(1) Eden regions: 28->0(49)
[2023-05-10T02:24:57.458+0400][gc,heap      ] GC(1) Survivor regions: 7->2(7)
[2023-05-10T02:24:57.458+0400][gc,heap      ] GC(1) Old regions: 2->9
[2023-05-10T02:24:57.458+0400][gc,heap      ] GC(1) Humongous regions: 0->0
[2023-05-10T02:24:57.458+0400][gc,metaspace ] GC(1) Metaspace: 20617K(21248K)->20617K(21248K) NonClass: 17849K(18176K)->17849K(18176K) Class: 2767K(3072K)->2767K(3072K)
[2023-05-10T02:24:57.458+0400][gc           ] GC(1) Pause Young (Concurrent Start) (Metadata GC Threshold) 35M->8M(1024M) 8,521ms
[2023-05-10T02:24:57.458+0400][gc,cpu       ] GC(1) User=0,03s Sys=0,01s Real=0,01s
[2023-05-10T02:24:57.458+0400][gc           ] GC(2) Concurrent Cycle
[2023-05-10T02:24:57.458+0400][gc,marking   ] GC(2) Concurrent Clear Claimed Marks
[2023-05-10T02:24:57.458+0400][gc,marking   ] GC(2) Concurrent Clear Claimed Marks 0,044ms
[2023-05-10T02:24:57.458+0400][gc,marking   ] GC(2) Concurrent Scan Root Regions
[2023-05-10T02:24:57.459+0400][gc,marking   ] GC(2) Concurrent Scan Root Regions 1,098ms
[2023-05-10T02:24:57.459+0400][gc,marking   ] GC(2) Concurrent Mark (1,058s)
[2023-05-10T02:24:57.459+0400][gc,marking   ] GC(2) Concurrent Mark From Roots
[2023-05-10T02:24:57.459+0400][gc,task      ] GC(2) Using 2 workers of 2 for marking
[2023-05-10T02:24:57.464+0400][gc,marking   ] GC(2) Concurrent Mark From Roots 4,944ms
[2023-05-10T02:24:57.464+0400][gc,marking   ] GC(2) Concurrent Preclean
[2023-05-10T02:24:57.464+0400][gc,marking   ] GC(2) Concurrent Preclean 0,140ms
[2023-05-10T02:24:57.464+0400][gc,marking   ] GC(2) Concurrent Mark (1,058s, 1,063s) 5,130ms
[2023-05-10T02:24:57.464+0400][gc,start     ] GC(2) Pause Remark
[2023-05-10T02:24:57.467+0400][gc,stringtable] GC(2) Cleaned string and symbol table, strings: 5128 processed, 0 removed, symbols: 52344 processed, 58 removed
[2023-05-10T02:24:57.467+0400][gc            ] GC(2) Pause Remark 9M->9M(1024M) 2,774ms
[2023-05-10T02:24:57.467+0400][gc,cpu        ] GC(2) User=0,02s Sys=0,00s Real=0,01s
[2023-05-10T02:24:57.467+0400][gc,marking    ] GC(2) Concurrent Rebuild Remembered Sets
[2023-05-10T02:24:57.470+0400][gc,marking    ] GC(2) Concurrent Rebuild Remembered Sets 2,643ms
[2023-05-10T02:24:57.470+0400][gc,start      ] GC(2) Pause Cleanup
[2023-05-10T02:24:57.470+0400][gc            ] GC(2) Pause Cleanup 9M->9M(1024M) 0,218ms
[2023-05-10T02:24:57.470+0400][gc,cpu        ] GC(2) User=0,00s Sys=0,00s Real=0,00s
[2023-05-10T02:24:57.470+0400][gc,marking    ] GC(2) Concurrent Cleanup for Next Mark
[2023-05-10T02:24:57.475+0400][gc,marking    ] GC(2) Concurrent Cleanup for Next Mark 4,349ms
[2023-05-10T02:24:57.475+0400][gc            ] GC(2) Concurrent Cycle 16,722ms
[2023-05-10T02:24:57.992+0400][gc,start      ] GC(3) Pause Young (Normal) (G1 Evacuation Pause)
[2023-05-10T02:24:57.992+0400][gc,task       ] GC(3) Using 8 workers of 8 for evacuation
[2023-05-10T02:24:57.995+0400][gc,phases     ] GC(3)   Pre Evacuate Collection Set: 0,0ms
[2023-05-10T02:24:57.995+0400][gc,phases     ] GC(3)   Evacuate Collection Set: 2,1ms
[2023-05-10T02:24:57.995+0400][gc,phases     ] GC(3)   Post Evacuate Collection Set: 0,4ms
[2023-05-10T02:24:57.995+0400][gc,phases     ] GC(3)   Other: 0,2ms
[2023-05-10T02:24:57.995+0400][gc,heap       ] GC(3) Eden regions: 49->0(47)
[2023-05-10T02:24:57.995+0400][gc,heap       ] GC(3) Survivor regions: 2->4(7)
[2023-05-10T02:24:57.995+0400][gc,heap       ] GC(3) Old regions: 9->9
[2023-05-10T02:24:57.995+0400][gc,heap       ] GC(3) Humongous regions: 129->129
[2023-05-10T02:24:57.995+0400][gc,metaspace  ] GC(3) Metaspace: 29604K(30976K)->29604K(30976K) NonClass: 25770K(26624K)->25770K(26624K) Class: 3833K(4352K)->3833K(4352K)
[2023-05-10T02:24:57.995+0400][gc            ] GC(3) Pause Young (Normal) (G1 Evacuation Pause) 186M->139M(1024M) 2,737ms
[2023-05-10T02:24:57.995+0400][gc,cpu        ] GC(3) User=0,02s Sys=0,00s Real=0,01s
[2023-05-10T02:24:58.223+0400][gc,start      ] GC(4) Pause Young (Concurrent Start) (Metadata GC Threshold)
[2023-05-10T02:24:58.223+0400][gc,task       ] GC(4) Using 8 workers of 8 for evacuation
[2023-05-10T02:24:58.228+0400][gc,phases     ] GC(4)   Pre Evacuate Collection Set: 0,1ms
[2023-05-10T02:24:58.228+0400][gc,phases     ] GC(4)   Evacuate Collection Set: 3,9ms
[2023-05-10T02:24:58.228+0400][gc,phases     ] GC(4)   Post Evacuate Collection Set: 0,5ms
[2023-05-10T02:24:58.228+0400][gc,phases     ] GC(4)   Other: 0,2ms
[2023-05-10T02:24:58.228+0400][gc,heap       ] GC(4) Eden regions: 27->0(45)
[2023-05-10T02:24:58.228+0400][gc,heap       ] GC(4) Survivor regions: 4->6(7)
[2023-05-10T02:24:58.228+0400][gc,heap       ] GC(4) Old regions: 9->10
[2023-05-10T02:24:58.228+0400][gc,heap       ] GC(4) Humongous regions: 129->129
[2023-05-10T02:24:58.228+0400][gc,metaspace  ] GC(4) Metaspace: 34466K(35840K)->34466K(35840K) NonClass: 30087K(30848K)->30087K(30848K) Class: 4378K(4992K)->4378K(4992K)
[2023-05-10T02:24:58.228+0400][gc            ] GC(4) Pause Young (Concurrent Start) (Metadata GC Threshold) 166M->142M(1024M) 4,716ms
[2023-05-10T02:24:58.228+0400][gc,cpu        ] GC(4) User=0,03s Sys=0,00s Real=0,01s
[2023-05-10T02:24:58.228+0400][gc            ] GC(5) Concurrent Cycle
[2023-05-10T02:24:58.228+0400][gc,marking    ] GC(5) Concurrent Clear Claimed Marks
[2023-05-10T02:24:58.228+0400][gc,marking    ] GC(5) Concurrent Clear Claimed Marks 0,085ms
[2023-05-10T02:24:58.228+0400][gc,marking    ] GC(5) Concurrent Scan Root Regions
[2023-05-10T02:24:58.231+0400][gc,marking    ] GC(5) Concurrent Scan Root Regions 2,420ms
[2023-05-10T02:24:58.231+0400][gc,marking    ] GC(5) Concurrent Mark (1,830s)
[2023-05-10T02:24:58.231+0400][gc,marking    ] GC(5) Concurrent Mark From Roots
[2023-05-10T02:24:58.231+0400][gc,task       ] GC(5) Using 2 workers of 2 for marking
[2023-05-10T02:24:58.238+0400][gc,marking    ] GC(5) Concurrent Mark From Roots 7,491ms
[2023-05-10T02:24:58.238+0400][gc,marking    ] GC(5) Concurrent Preclean
[2023-05-10T02:24:58.238+0400][gc,marking    ] GC(5) Concurrent Preclean 0,173ms
[2023-05-10T02:24:58.238+0400][gc,marking    ] GC(5) Concurrent Mark (1,830s, 1,837s) 7,726ms
[2023-05-10T02:24:58.239+0400][gc,start      ] GC(5) Pause Remark
[2023-05-10T02:24:58.241+0400][gc,stringtable] GC(5) Cleaned string and symbol table, strings: 10405 processed, 11 removed, symbols: 83838 processed, 17 removed
[2023-05-10T02:24:58.241+0400][gc            ] GC(5) Pause Remark 144M->144M(1024M) 2,585ms
[2023-05-10T02:24:58.241+0400][gc,cpu        ] GC(5) User=0,02s Sys=0,00s Real=0,00s
[2023-05-10T02:24:58.241+0400][gc,marking    ] GC(5) Concurrent Rebuild Remembered Sets
[2023-05-10T02:24:58.245+0400][gc,marking    ] GC(5) Concurrent Rebuild Remembered Sets 3,957ms
[2023-05-10T02:24:58.250+0400][gc,start      ] GC(5) Pause Cleanup
[2023-05-10T02:24:58.250+0400][gc            ] GC(5) Pause Cleanup 144M->144M(1024M) 0,247ms
[2023-05-10T02:24:58.250+0400][gc,cpu        ] GC(5) User=0,00s Sys=0,00s Real=0,00s
[2023-05-10T02:24:58.250+0400][gc,marking    ] GC(5) Concurrent Cleanup for Next Mark
[2023-05-10T02:24:58.255+0400][gc,marking    ] GC(5) Concurrent Cleanup for Next Mark 4,973ms
[2023-05-10T02:24:58.255+0400][gc            ] GC(5) Concurrent Cycle 26,698ms
[2023-05-10T02:25:13.868+0400][gc,start      ] GC(6) Pause Young (Normal) (G1 Evacuation Pause)
[2023-05-10T02:25:13.868+0400][gc,task       ] GC(6) Using 8 workers of 8 for evacuation
[2023-05-10T02:25:13.872+0400][gc,phases     ] GC(6)   Pre Evacuate Collection Set: 0,0ms
[2023-05-10T02:25:13.872+0400][gc,phases     ] GC(6)   Evacuate Collection Set: 3,6ms
[2023-05-10T02:25:13.872+0400][gc,phases     ] GC(6)   Post Evacuate Collection Set: 0,5ms
[2023-05-10T02:25:13.872+0400][gc,phases     ] GC(6)   Other: 0,2ms
[2023-05-10T02:25:13.872+0400][gc,heap       ] GC(6) Eden regions: 45->0(47)
[2023-05-10T02:25:13.872+0400][gc,heap       ] GC(6) Survivor regions: 6->4(7)
[2023-05-10T02:25:13.872+0400][gc,heap       ] GC(6) Old regions: 10->13
[2023-05-10T02:25:13.872+0400][gc,heap       ] GC(6) Humongous regions: 129->129
[2023-05-10T02:25:13.872+0400][gc,metaspace  ] GC(6) Metaspace: 40161K(42240K)->40161K(42240K) NonClass: 34755K(35840K)->34755K(35840K) Class: 5405K(6400K)->5405K(6400K)
[2023-05-10T02:25:13.872+0400][gc            ] GC(6) Pause Young (Normal) (G1 Evacuation Pause) 187M->143M(1024M) 4,437ms
[2023-05-10T02:25:13.872+0400][gc,cpu        ] GC(6) User=0,03s Sys=0,01s Real=0,00s
[2023-05-10T02:25:24.952+0400][gc,start      ] GC(7) Pause Young (Normal) (G1 Evacuation Pause)
[2023-05-10T02:25:24.952+0400][gc,task       ] GC(7) Using 8 workers of 8 for evacuation
[2023-05-10T02:25:24.954+0400][gc,phases     ] GC(7)   Pre Evacuate Collection Set: 0,0ms
[2023-05-10T02:25:24.954+0400][gc,phases     ] GC(7)   Evacuate Collection Set: 2,0ms
[2023-05-10T02:25:24.954+0400][gc,phases     ] GC(7)   Post Evacuate Collection Set: 0,5ms
[2023-05-10T02:25:24.954+0400][gc,phases     ] GC(7)   Other: 0,2ms
[2023-05-10T02:25:24.954+0400][gc,heap       ] GC(7) Eden regions: 47->0(46)
[2023-05-10T02:25:24.954+0400][gc,heap       ] GC(7) Survivor regions: 4->5(7)
[2023-05-10T02:25:24.954+0400][gc,heap       ] GC(7) Old regions: 13->13
[2023-05-10T02:25:24.954+0400][gc,heap       ] GC(7) Humongous regions: 129->129
[2023-05-10T02:25:24.954+0400][gc,metaspace  ] GC(7) Metaspace: 41326K(43776K)->41326K(43776K) NonClass: 35801K(37120K)->35801K(37120K) Class: 5524K(6656K)->5524K(6656K)
[2023-05-10T02:25:24.954+0400][gc            ] GC(7) Pause Young (Normal) (G1 Evacuation Pause) 190M->144M(1024M) 2,684ms
[2023-05-10T02:25:24.954+0400][gc,cpu        ] GC(7) User=0,02s Sys=0,00s Real=0,01s
[2023-05-10T02:25:25.429+0400][gc,start      ] GC(8) Pause Young (Normal) (G1 Evacuation Pause)
[2023-05-10T02:25:25.429+0400][gc,task       ] GC(8) Using 8 workers of 8 for evacuation
[2023-05-10T02:25:25.433+0400][gc,phases     ] GC(8)   Pre Evacuate Collection Set: 0,0ms
[2023-05-10T02:25:25.433+0400][gc,phases     ] GC(8)   Evacuate Collection Set: 3,1ms
[2023-05-10T02:25:25.433+0400][gc,phases     ] GC(8)   Post Evacuate Collection Set: 0,4ms
[2023-05-10T02:25:25.433+0400][gc,phases     ] GC(8)   Other: 0,2ms
[2023-05-10T02:25:25.433+0400][gc,heap       ] GC(8) Eden regions: 46->0(48)
[2023-05-10T02:25:25.433+0400][gc,heap       ] GC(8) Survivor regions: 5->3(7)
[2023-05-10T02:25:25.433+0400][gc,heap       ] GC(8) Old regions: 13->15
[2023-05-10T02:25:25.433+0400][gc,heap       ] GC(8) Humongous regions: 129->129
[2023-05-10T02:25:25.433+0400][gc,metaspace  ] GC(8) Metaspace: 41615K(44032K)->41615K(44032K) NonClass: 36090K(37376K)->36090K(37376K) Class: 5524K(6656K)->5524K(6656K)
[2023-05-10T02:25:25.433+0400][gc            ] GC(8) Pause Young (Normal) (G1 Evacuation Pause) 190M->144M(1024M) 3,808ms
[2023-05-10T02:25:25.433+0400][gc,cpu        ] GC(8) User=0,02s Sys=0,00s Real=0,01s
[2023-05-10T02:25:25.886+0400][gc,start      ] GC(9) Pause Young (Normal) (G1 Evacuation Pause)
[2023-05-10T02:25:25.886+0400][gc,task       ] GC(9) Using 8 workers of 8 for evacuation
[2023-05-10T02:25:25.890+0400][gc,phases     ] GC(9)   Pre Evacuate Collection Set: 0,0ms
[2023-05-10T02:25:25.890+0400][gc,phases     ] GC(9)   Evacuate Collection Set: 2,6ms
[2023-05-10T02:25:25.890+0400][gc,phases     ] GC(9)   Post Evacuate Collection Set: 0,7ms
[2023-05-10T02:25:25.890+0400][gc,phases     ] GC(9)   Other: 0,2ms
[2023-05-10T02:25:25.890+0400][gc,heap       ] GC(9) Eden regions: 48->0(59)
[2023-05-10T02:25:25.890+0400][gc,heap       ] GC(9) Survivor regions: 3->3(7)
[2023-05-10T02:25:25.890+0400][gc,heap       ] GC(9) Old regions: 15->15
[2023-05-10T02:25:25.890+0400][gc,heap       ] GC(9) Humongous regions: 129->129
[2023-05-10T02:25:25.890+0400][gc,metaspace  ] GC(9) Metaspace: 41650K(44032K)->41650K(44032K) NonClass: 36126K(37376K)->36126K(37376K) Class: 5524K(6656K)->5524K(6656K)
[2023-05-10T02:25:25.890+0400][gc            ] GC(9) Pause Young (Normal) (G1 Evacuation Pause) 192M->144M(1024M) 3,703ms
[2023-05-10T02:25:25.890+0400][gc,cpu        ] GC(9) User=0,02s Sys=0,00s Real=0,00s
[2023-05-10T02:25:30.966+0400][gc,start      ] GC(10) Pause Young (Normal) (G1 Evacuation Pause)
[2023-05-10T02:25:30.966+0400][gc,task       ] GC(10) Using 8 workers of 8 for evacuation
[2023-05-10T02:25:30.969+0400][gc,phases     ] GC(10)   Pre Evacuate Collection Set: 0,0ms
[2023-05-10T02:25:30.969+0400][gc,phases     ] GC(10)   Evacuate Collection Set: 2,6ms
[2023-05-10T02:25:30.969+0400][gc,phases     ] GC(10)   Post Evacuate Collection Set: 0,5ms
[2023-05-10T02:25:30.969+0400][gc,phases     ] GC(10)   Other: 0,2ms
[2023-05-10T02:25:30.969+0400][gc,heap       ] GC(10) Eden regions: 59->0(521)
[2023-05-10T02:25:30.969+0400][gc,heap       ] GC(10) Survivor regions: 3->3(8)
[2023-05-10T02:25:30.969+0400][gc,heap       ] GC(10) Old regions: 15->15
[2023-05-10T02:25:30.969+0400][gc,heap       ] GC(10) Humongous regions: 129->129
[2023-05-10T02:25:30.969+0400][gc,metaspace  ] GC(10) Metaspace: 42119K(44416K)->42119K(44416K) NonClass: 36505K(37632K)->36505K(37632K) Class: 5613K(6784K)->5613K(6784K)
[2023-05-10T02:25:30.969+0400][gc            ] GC(10) Pause Young (Normal) (G1 Evacuation Pause) 203M->144M(1024M) 3,353ms
[2023-05-10T02:25:30.969+0400][gc,cpu        ] GC(10) User=0,01s Sys=0,01s Real=0,00s
