[2023-05-10T01:21:36.198+0400][gc,heap] Heap region size: 1M
[2023-05-10T01:21:36.207+0400][gc     ] Using G1
[2023-05-10T01:21:36.207+0400][gc,heap,coops] Heap address: 0x00000000c0000000, size: 1024 MB, Compressed Oops mode: 32-bit
[2023-05-10T01:21:36.207+0400][gc,cds       ] Mark closed archive regions in map: [0x00000000fff00000, 0x00000000fff6aff8]
[2023-05-10T01:21:36.207+0400][gc,cds       ] Mark open archive regions in map: [0x00000000ffe00000, 0x00000000ffe47ff8]
[2023-05-10T01:21:37.381+0400][gc,start     ] GC(0) Pause Young (Normal) (G1 Evacuation Pause)
[2023-05-10T01:21:37.382+0400][gc,task      ] GC(0) Using 8 workers of 8 for evacuation
[2023-05-10T01:21:37.390+0400][gc,phases    ] GC(0)   Pre Evacuate Collection Set: 0,0ms
[2023-05-10T01:21:37.390+0400][gc,phases    ] GC(0)   Evacuate Collection Set: 7,8ms
[2023-05-10T01:21:37.390+0400][gc,phases    ] GC(0)   Post Evacuate Collection Set: 0,7ms
[2023-05-10T01:21:37.390+0400][gc,phases    ] GC(0)   Other: 0,7ms
[2023-05-10T01:21:37.390+0400][gc,heap      ] GC(0) Eden regions: 51->0(44)
[2023-05-10T01:21:37.390+0400][gc,heap      ] GC(0) Survivor regions: 0->7(7)
[2023-05-10T01:21:37.390+0400][gc,heap      ] GC(0) Old regions: 2->2
[2023-05-10T01:21:37.390+0400][gc,heap      ] GC(0) Humongous regions: 0->0
[2023-05-10T01:21:37.390+0400][gc,metaspace ] GC(0) Metaspace: 14317K(15104K)->14317K(15104K) NonClass: 12317K(12800K)->12317K(12800K) Class: 1999K(2304K)->1999K(2304K)
[2023-05-10T01:21:37.391+0400][gc           ] GC(0) Pause Young (Normal) (G1 Evacuation Pause) 51M->7M(1024M) 9,343ms
[2023-05-10T01:21:37.391+0400][gc,cpu       ] GC(0) User=0,04s Sys=0,00s Real=0,01s
[2023-05-10T01:21:56.305+0400][gc,heap,exit ] Heap
[2023-05-10T01:21:56.305+0400][gc,heap,exit ]  garbage-first heap   total 1048576K, used 13482K [0x00000000c0000000, 0x0000000100000000)
[2023-05-10T01:21:56.305+0400][gc,heap,exit ]   region size 1024K, 14 young (14336K), 7 survivors (7168K)
[2023-05-10T01:21:56.305+0400][gc,heap,exit ]  Metaspace       used 15277K, capacity 15792K, committed 16000K, reserved 1062912K
[2023-05-10T01:21:56.305+0400][gc,heap,exit ]   class space    used 2114K, capacity 2330K, committed 2432K, reserved 1048576K
