[2023-05-10T01:23:18.244+0400][gc,heap] Heap region size: 1M
[2023-05-10T01:23:18.253+0400][gc     ] Using G1
[2023-05-10T01:23:18.253+0400][gc,heap,coops] Heap address: 0x00000000c0000000, size: 1024 MB, Compressed Oops mode: 32-bit
[2023-05-10T01:23:18.253+0400][gc,cds       ] Mark closed archive regions in map: [0x00000000fff00000, 0x00000000fff6aff8]
[2023-05-10T01:23:18.253+0400][gc,cds       ] Mark open archive regions in map: [0x00000000ffe00000, 0x00000000ffe47ff8]
[2023-05-10T01:23:19.007+0400][gc,start     ] GC(0) Pause Young (Normal) (G1 Evacuation Pause)
[2023-05-10T01:23:19.008+0400][gc,task      ] GC(0) Using 8 workers of 8 for evacuation
[2023-05-10T01:23:19.016+0400][gc,phases    ] GC(0)   Pre Evacuate Collection Set: 0,0ms
[2023-05-10T01:23:19.016+0400][gc,phases    ] GC(0)   Evacuate Collection Set: 6,6ms
[2023-05-10T01:23:19.016+0400][gc,phases    ] GC(0)   Post Evacuate Collection Set: 0,5ms
[2023-05-10T01:23:19.016+0400][gc,phases    ] GC(0)   Other: 1,1ms
[2023-05-10T01:23:19.016+0400][gc,heap      ] GC(0) Eden regions: 51->0(44)
[2023-05-10T01:23:19.016+0400][gc,heap      ] GC(0) Survivor regions: 0->7(7)
[2023-05-10T01:23:19.016+0400][gc,heap      ] GC(0) Old regions: 2->2
[2023-05-10T01:23:19.016+0400][gc,heap      ] GC(0) Humongous regions: 0->0
[2023-05-10T01:23:19.016+0400][gc,metaspace ] GC(0) Metaspace: 14364K(15104K)->14364K(15104K) NonClass: 12362K(12800K)->12362K(12800K) Class: 2001K(2304K)->2001K(2304K)
[2023-05-10T01:23:19.016+0400][gc           ] GC(0) Pause Young (Normal) (G1 Evacuation Pause) 51M->7M(1024M) 8,281ms
[2023-05-10T01:23:19.016+0400][gc,cpu       ] GC(0) User=0,06s Sys=0,00s Real=0,01s
[2023-05-10T01:23:19.341+0400][gc,start     ] GC(1) Pause Young (Concurrent Start) (Metadata GC Threshold)
[2023-05-10T01:23:19.341+0400][gc,task      ] GC(1) Using 8 workers of 8 for evacuation
[2023-05-10T01:23:19.349+0400][gc,phases    ] GC(1)   Pre Evacuate Collection Set: 0,0ms
[2023-05-10T01:23:19.349+0400][gc,phases    ] GC(1)   Evacuate Collection Set: 6,7ms
[2023-05-10T01:23:19.349+0400][gc,phases    ] GC(1)   Post Evacuate Collection Set: 0,4ms
[2023-05-10T01:23:19.349+0400][gc,phases    ] GC(1)   Other: 0,2ms
[2023-05-10T01:23:19.349+0400][gc,heap      ] GC(1) Eden regions: 27->0(49)
[2023-05-10T01:23:19.349+0400][gc,heap      ] GC(1) Survivor regions: 7->2(7)
[2023-05-10T01:23:19.349+0400][gc,heap      ] GC(1) Old regions: 2->9
[2023-05-10T01:23:19.349+0400][gc,heap      ] GC(1) Humongous regions: 0->0
[2023-05-10T01:23:19.349+0400][gc,metaspace ] GC(1) Metaspace: 20616K(21248K)->20616K(21248K) NonClass: 17848K(18176K)->17848K(18176K) Class: 2767K(3072K)->2767K(3072K)
[2023-05-10T01:23:19.349+0400][gc           ] GC(1) Pause Young (Concurrent Start) (Metadata GC Threshold) 34M->8M(1024M) 7,371ms
[2023-05-10T01:23:19.349+0400][gc,cpu       ] GC(1) User=0,03s Sys=0,00s Real=0,01s
[2023-05-10T01:23:19.349+0400][gc           ] GC(2) Concurrent Cycle
[2023-05-10T01:23:19.349+0400][gc,marking   ] GC(2) Concurrent Clear Claimed Marks
[2023-05-10T01:23:19.349+0400][gc,marking   ] GC(2) Concurrent Clear Claimed Marks 0,029ms
[2023-05-10T01:23:19.349+0400][gc,marking   ] GC(2) Concurrent Scan Root Regions
[2023-05-10T01:23:19.350+0400][gc,marking   ] GC(2) Concurrent Scan Root Regions 0,782ms
[2023-05-10T01:23:19.350+0400][gc,marking   ] GC(2) Concurrent Mark (1,109s)
[2023-05-10T01:23:19.350+0400][gc,marking   ] GC(2) Concurrent Mark From Roots
[2023-05-10T01:23:19.350+0400][gc,task      ] GC(2) Using 2 workers of 2 for marking
[2023-05-10T01:23:19.355+0400][gc,marking   ] GC(2) Concurrent Mark From Roots 5,314ms
[2023-05-10T01:23:19.355+0400][gc,marking   ] GC(2) Concurrent Preclean
[2023-05-10T01:23:19.355+0400][gc,marking   ] GC(2) Concurrent Preclean 0,165ms
[2023-05-10T01:23:19.355+0400][gc,marking   ] GC(2) Concurrent Mark (1,109s, 1,115s) 5,533ms
[2023-05-10T01:23:19.356+0400][gc,start     ] GC(2) Pause Remark
[2023-05-10T01:23:19.357+0400][gc,stringtable] GC(2) Cleaned string and symbol table, strings: 5132 processed, 0 removed, symbols: 52392 processed, 58 removed
[2023-05-10T01:23:19.358+0400][gc            ] GC(2) Pause Remark 9M->9M(1024M) 2,122ms
[2023-05-10T01:23:19.358+0400][gc,cpu        ] GC(2) User=0,01s Sys=0,01s Real=0,00s
[2023-05-10T01:23:19.358+0400][gc,marking    ] GC(2) Concurrent Rebuild Remembered Sets
[2023-05-10T01:23:19.361+0400][gc,marking    ] GC(2) Concurrent Rebuild Remembered Sets 2,816ms
[2023-05-10T01:23:19.361+0400][gc,start      ] GC(2) Pause Cleanup
[2023-05-10T01:23:19.361+0400][gc            ] GC(2) Pause Cleanup 9M->9M(1024M) 0,200ms
[2023-05-10T01:23:19.361+0400][gc,cpu        ] GC(2) User=0,00s Sys=0,00s Real=0,00s
[2023-05-10T01:23:19.361+0400][gc,marking    ] GC(2) Concurrent Cleanup for Next Mark
[2023-05-10T01:23:19.365+0400][gc,marking    ] GC(2) Concurrent Cleanup for Next Mark 4,148ms
[2023-05-10T01:23:19.365+0400][gc            ] GC(2) Concurrent Cycle 16,279ms
[2023-05-10T01:23:19.867+0400][gc,start      ] GC(3) Pause Young (Normal) (G1 Evacuation Pause)
[2023-05-10T01:23:19.867+0400][gc,task       ] GC(3) Using 8 workers of 8 for evacuation
[2023-05-10T01:23:19.869+0400][gc,phases     ] GC(3)   Pre Evacuate Collection Set: 0,0ms
[2023-05-10T01:23:19.869+0400][gc,phases     ] GC(3)   Evacuate Collection Set: 2,0ms
[2023-05-10T01:23:19.869+0400][gc,phases     ] GC(3)   Post Evacuate Collection Set: 0,4ms
[2023-05-10T01:23:19.869+0400][gc,phases     ] GC(3)   Other: 0,1ms
[2023-05-10T01:23:19.869+0400][gc,heap       ] GC(3) Eden regions: 49->0(47)
[2023-05-10T01:23:19.869+0400][gc,heap       ] GC(3) Survivor regions: 2->4(7)
[2023-05-10T01:23:19.869+0400][gc,heap       ] GC(3) Old regions: 9->9
[2023-05-10T01:23:19.869+0400][gc,heap       ] GC(3) Humongous regions: 129->129
[2023-05-10T01:23:19.869+0400][gc,metaspace  ] GC(3) Metaspace: 29565K(30720K)->29565K(30720K) NonClass: 25731K(26368K)->25731K(26368K) Class: 3833K(4352K)->3833K(4352K)
[2023-05-10T01:23:19.869+0400][gc            ] GC(3) Pause Young (Normal) (G1 Evacuation Pause) 186M->139M(1024M) 2,668ms
[2023-05-10T01:23:19.869+0400][gc,cpu        ] GC(3) User=0,02s Sys=0,00s Real=0,00s
[2023-05-10T01:23:20.116+0400][gc,start      ] GC(4) Pause Young (Concurrent Start) (Metadata GC Threshold)
[2023-05-10T01:23:20.116+0400][gc,task       ] GC(4) Using 8 workers of 8 for evacuation
[2023-05-10T01:23:20.122+0400][gc,phases     ] GC(4)   Pre Evacuate Collection Set: 0,1ms
[2023-05-10T01:23:20.122+0400][gc,phases     ] GC(4)   Evacuate Collection Set: 4,7ms
[2023-05-10T01:23:20.122+0400][gc,phases     ] GC(4)   Post Evacuate Collection Set: 0,4ms
[2023-05-10T01:23:20.122+0400][gc,phases     ] GC(4)   Other: 0,2ms
[2023-05-10T01:23:20.122+0400][gc,heap       ] GC(4) Eden regions: 27->0(45)
[2023-05-10T01:23:20.122+0400][gc,heap       ] GC(4) Survivor regions: 4->6(7)
[2023-05-10T01:23:20.122+0400][gc,heap       ] GC(4) Old regions: 9->9
[2023-05-10T01:23:20.122+0400][gc,heap       ] GC(4) Humongous regions: 129->129
[2023-05-10T01:23:20.122+0400][gc,metaspace  ] GC(4) Metaspace: 34453K(35840K)->34453K(35840K) NonClass: 30075K(30848K)->30075K(30848K) Class: 4377K(4992K)->4377K(4992K)
[2023-05-10T01:23:20.122+0400][gc            ] GC(4) Pause Young (Concurrent Start) (Metadata GC Threshold) 166M->141M(1024M) 5,432ms
[2023-05-10T01:23:20.122+0400][gc,cpu        ] GC(4) User=0,04s Sys=0,00s Real=0,00s
[2023-05-10T01:23:20.122+0400][gc            ] GC(5) Concurrent Cycle
[2023-05-10T01:23:20.122+0400][gc,marking    ] GC(5) Concurrent Clear Claimed Marks
[2023-05-10T01:23:20.122+0400][gc,marking    ] GC(5) Concurrent Clear Claimed Marks 0,072ms
[2023-05-10T01:23:20.122+0400][gc,marking    ] GC(5) Concurrent Scan Root Regions
[2023-05-10T01:23:20.127+0400][gc,marking    ] GC(5) Concurrent Scan Root Regions 5,496ms
[2023-05-10T01:23:20.127+0400][gc,marking    ] GC(5) Concurrent Mark (1,887s)
[2023-05-10T01:23:20.127+0400][gc,marking    ] GC(5) Concurrent Mark From Roots
[2023-05-10T01:23:20.127+0400][gc,task       ] GC(5) Using 2 workers of 2 for marking
[2023-05-10T01:23:20.134+0400][gc,marking    ] GC(5) Concurrent Mark From Roots 6,526ms
[2023-05-10T01:23:20.134+0400][gc,marking    ] GC(5) Concurrent Preclean
[2023-05-10T01:23:20.134+0400][gc,marking    ] GC(5) Concurrent Preclean 0,127ms
[2023-05-10T01:23:20.134+0400][gc,marking    ] GC(5) Concurrent Mark (1,887s, 1,894s) 6,690ms
[2023-05-10T01:23:20.134+0400][gc,start      ] GC(5) Pause Remark
[2023-05-10T01:23:20.137+0400][gc,stringtable] GC(5) Cleaned string and symbol table, strings: 10410 processed, 11 removed, symbols: 83842 processed, 16 removed
[2023-05-10T01:23:20.137+0400][gc            ] GC(5) Pause Remark 143M->143M(1024M) 2,616ms
[2023-05-10T01:23:20.137+0400][gc,cpu        ] GC(5) User=0,01s Sys=0,00s Real=0,00s
[2023-05-10T01:23:20.137+0400][gc,marking    ] GC(5) Concurrent Rebuild Remembered Sets
[2023-05-10T01:23:20.140+0400][gc,marking    ] GC(5) Concurrent Rebuild Remembered Sets 3,347ms
[2023-05-10T01:23:20.140+0400][gc,start      ] GC(5) Pause Cleanup
[2023-05-10T01:23:20.141+0400][gc            ] GC(5) Pause Cleanup 144M->144M(1024M) 0,225ms
[2023-05-10T01:23:20.141+0400][gc,cpu        ] GC(5) User=0,01s Sys=0,00s Real=0,00s
[2023-05-10T01:23:20.141+0400][gc,marking    ] GC(5) Concurrent Cleanup for Next Mark
[2023-05-10T01:23:20.147+0400][gc,marking    ] GC(5) Concurrent Cleanup for Next Mark 5,998ms
[2023-05-10T01:23:20.147+0400][gc            ] GC(5) Concurrent Cycle 24,929ms
[2023-05-10T01:24:41.402+0400][gc,start      ] GC(6) Pause Young (Normal) (G1 Evacuation Pause)
[2023-05-10T01:24:41.402+0400][gc,task       ] GC(6) Using 8 workers of 8 for evacuation
[2023-05-10T01:24:41.415+0400][gc,phases     ] GC(6)   Pre Evacuate Collection Set: 0,9ms
[2023-05-10T01:24:41.415+0400][gc,phases     ] GC(6)   Evacuate Collection Set: 7,1ms
[2023-05-10T01:24:41.415+0400][gc,phases     ] GC(6)   Post Evacuate Collection Set: 3,2ms
[2023-05-10T01:24:41.415+0400][gc,phases     ] GC(6)   Other: 3,1ms
[2023-05-10T01:24:41.415+0400][gc,heap       ] GC(6) Eden regions: 45->0(44)
[2023-05-10T01:24:41.415+0400][gc,heap       ] GC(6) Survivor regions: 6->7(7)
[2023-05-10T01:24:41.415+0400][gc,heap       ] GC(6) Old regions: 9->12
[2023-05-10T01:24:41.415+0400][gc,heap       ] GC(6) Humongous regions: 129->129
[2023-05-10T01:24:41.415+0400][gc,metaspace  ] GC(6) Metaspace: 41712K(44160K)->41712K(44160K) NonClass: 36130K(37376K)->36130K(37376K) Class: 5582K(6784K)->5582K(6784K)
[2023-05-10T01:24:41.416+0400][gc            ] GC(6) Pause Young (Normal) (G1 Evacuation Pause) 186M->145M(1024M) 13,529ms
[2023-05-10T01:24:41.416+0400][gc,cpu        ] GC(6) User=0,06s Sys=0,01s Real=0,02s
[2023-05-10T01:24:46.532+0400][gc,start      ] GC(7) Pause Young (Normal) (G1 Evacuation Pause)
[2023-05-10T01:24:46.532+0400][gc,task       ] GC(7) Using 8 workers of 8 for evacuation
[2023-05-10T01:24:46.537+0400][gc,phases     ] GC(7)   Pre Evacuate Collection Set: 0,1ms
[2023-05-10T01:24:46.537+0400][gc,phases     ] GC(7)   Evacuate Collection Set: 4,4ms
[2023-05-10T01:24:46.537+0400][gc,phases     ] GC(7)   Post Evacuate Collection Set: 0,6ms
[2023-05-10T01:24:46.537+0400][gc,phases     ] GC(7)   Other: 0,3ms
[2023-05-10T01:24:46.537+0400][gc,heap       ] GC(7) Eden regions: 44->0(47)
[2023-05-10T01:24:46.538+0400][gc,heap       ] GC(7) Survivor regions: 7->4(7)
[2023-05-10T01:24:46.538+0400][gc,heap       ] GC(7) Old regions: 12->15
[2023-05-10T01:24:46.538+0400][gc,heap       ] GC(7) Humongous regions: 129->129
[2023-05-10T01:24:46.538+0400][gc,metaspace  ] GC(7) Metaspace: 42031K(44416K)->42031K(44416K) NonClass: 36412K(37632K)->36412K(37632K) Class: 5618K(6784K)->5618K(6784K)
[2023-05-10T01:24:46.538+0400][gc            ] GC(7) Pause Young (Normal) (G1 Evacuation Pause) 189M->145M(1024M) 5,531ms
[2023-05-10T01:24:46.538+0400][gc,cpu        ] GC(7) User=0,03s Sys=0,00s Real=0,01s
[2023-05-10T01:24:52.098+0400][gc,start      ] GC(8) Pause Young (Normal) (G1 Evacuation Pause)
[2023-05-10T01:24:52.098+0400][gc,task       ] GC(8) Using 8 workers of 8 for evacuation
[2023-05-10T01:24:52.102+0400][gc,phases     ] GC(8)   Pre Evacuate Collection Set: 0,0ms
[2023-05-10T01:24:52.102+0400][gc,phases     ] GC(8)   Evacuate Collection Set: 3,2ms
[2023-05-10T01:24:52.102+0400][gc,phases     ] GC(8)   Post Evacuate Collection Set: 0,6ms
[2023-05-10T01:24:52.102+0400][gc,phases     ] GC(8)   Other: 0,2ms
[2023-05-10T01:24:52.102+0400][gc,heap       ] GC(8) Eden regions: 47->0(47)
[2023-05-10T01:24:52.102+0400][gc,heap       ] GC(8) Survivor regions: 4->4(7)
[2023-05-10T01:24:52.102+0400][gc,heap       ] GC(8) Old regions: 15->15
[2023-05-10T01:24:52.102+0400][gc,heap       ] GC(8) Humongous regions: 129->129
[2023-05-10T01:24:52.102+0400][gc,metaspace  ] GC(8) Metaspace: 42172K(44672K)->42172K(44672K) NonClass: 36554K(37888K)->36554K(37888K) Class: 5618K(6784K)->5618K(6784K)
[2023-05-10T01:24:52.102+0400][gc            ] GC(8) Pause Young (Normal) (G1 Evacuation Pause) 192M->145M(1024M) 4,118ms
[2023-05-10T01:24:52.102+0400][gc,cpu        ] GC(8) User=0,02s Sys=0,00s Real=0,00s
[2023-05-10T01:24:57.667+0400][gc,start      ] GC(9) Pause Young (Normal) (G1 Evacuation Pause)
[2023-05-10T01:24:57.667+0400][gc,task       ] GC(9) Using 8 workers of 8 for evacuation
[2023-05-10T01:24:57.670+0400][gc,phases     ] GC(9)   Pre Evacuate Collection Set: 0,0ms
[2023-05-10T01:24:57.670+0400][gc,phases     ] GC(9)   Evacuate Collection Set: 2,0ms
[2023-05-10T01:24:57.670+0400][gc,phases     ] GC(9)   Post Evacuate Collection Set: 0,5ms
[2023-05-10T01:24:57.670+0400][gc,phases     ] GC(9)   Other: 0,2ms
[2023-05-10T01:24:57.670+0400][gc,heap       ] GC(9) Eden regions: 47->0(52)
[2023-05-10T01:24:57.670+0400][gc,heap       ] GC(9) Survivor regions: 4->4(7)
[2023-05-10T01:24:57.670+0400][gc,heap       ] GC(9) Old regions: 15->15
[2023-05-10T01:24:57.670+0400][gc,heap       ] GC(9) Humongous regions: 129->129
[2023-05-10T01:24:57.670+0400][gc,metaspace  ] GC(9) Metaspace: 42239K(44672K)->42239K(44672K) NonClass: 36616K(37888K)->36616K(37888K) Class: 5622K(6784K)->5622K(6784K)
[2023-05-10T01:24:57.670+0400][gc            ] GC(9) Pause Young (Normal) (G1 Evacuation Pause) 192M->145M(1024M) 2,754ms
[2023-05-10T01:24:57.670+0400][gc,cpu        ] GC(9) User=0,01s Sys=0,00s Real=0,00s
[2023-05-10T01:25:04.147+0400][gc,start      ] GC(10) Pause Young (Normal) (G1 Evacuation Pause)
[2023-05-10T01:25:04.147+0400][gc,task       ] GC(10) Using 8 workers of 8 for evacuation
[2023-05-10T01:25:04.149+0400][gc,phases     ] GC(10)   Pre Evacuate Collection Set: 0,0ms
[2023-05-10T01:25:04.149+0400][gc,phases     ] GC(10)   Evacuate Collection Set: 1,9ms
[2023-05-10T01:25:04.149+0400][gc,phases     ] GC(10)   Post Evacuate Collection Set: 0,5ms
[2023-05-10T01:25:04.149+0400][gc,phases     ] GC(10)   Other: 0,2ms
[2023-05-10T01:25:04.149+0400][gc,heap       ] GC(10) Eden regions: 52->0(69)
[2023-05-10T01:25:04.149+0400][gc,heap       ] GC(10) Survivor regions: 4->4(7)
[2023-05-10T01:25:04.149+0400][gc,heap       ] GC(10) Old regions: 15->15
[2023-05-10T01:25:04.149+0400][gc,heap       ] GC(10) Humongous regions: 129->129
[2023-05-10T01:25:04.149+0400][gc,metaspace  ] GC(10) Metaspace: 42506K(44928K)->42506K(44928K) NonClass: 36884K(38144K)->36884K(38144K) Class: 5622K(6784K)->5622K(6784K)
[2023-05-10T01:25:04.149+0400][gc            ] GC(10) Pause Young (Normal) (G1 Evacuation Pause) 197M->145M(1024M) 2,727ms
[2023-05-10T01:25:04.149+0400][gc,cpu        ] GC(10) User=0,01s Sys=0,00s Real=0,00s
[2023-05-10T01:27:53.334+0400][gc,start      ] GC(11) Pause Young (Normal) (G1 Evacuation Pause)
[2023-05-10T01:27:53.335+0400][gc,task       ] GC(11) Using 8 workers of 8 for evacuation
[2023-05-10T01:27:53.339+0400][gc,phases     ] GC(11)   Pre Evacuate Collection Set: 0,0ms
[2023-05-10T01:27:53.339+0400][gc,phases     ] GC(11)   Evacuate Collection Set: 3,7ms
[2023-05-10T01:27:53.339+0400][gc,phases     ] GC(11)   Post Evacuate Collection Set: 0,4ms
[2023-05-10T01:27:53.339+0400][gc,phases     ] GC(11)   Other: 0,4ms
[2023-05-10T01:27:53.339+0400][gc,heap       ] GC(11) Eden regions: 69->0(266)
[2023-05-10T01:27:53.339+0400][gc,heap       ] GC(11) Survivor regions: 4->4(10)
[2023-05-10T01:27:53.339+0400][gc,heap       ] GC(11) Old regions: 15->15
[2023-05-10T01:27:53.339+0400][gc,heap       ] GC(11) Humongous regions: 129->129
[2023-05-10T01:27:53.339+0400][gc,metaspace  ] GC(11) Metaspace: 42588K(45184K)->42588K(45184K) NonClass: 36965K(38400K)->36965K(38400K) Class: 5623K(6784K)->5623K(6784K)
[2023-05-10T01:27:53.339+0400][gc            ] GC(11) Pause Young (Normal) (G1 Evacuation Pause) 214M->145M(1024M) 4,721ms
[2023-05-10T01:27:53.339+0400][gc,cpu        ] GC(11) User=0,02s Sys=0,01s Real=0,00s
[2023-05-10T01:28:23.449+0400][gc,start      ] GC(12) Pause Young (Normal) (G1 Evacuation Pause)
[2023-05-10T01:28:23.449+0400][gc,task       ] GC(12) Using 8 workers of 8 for evacuation
[2023-05-10T01:28:23.470+0400][gc,mmu        ] GC(12) MMU target violated: 20,4ms (20,0ms/21,0ms)
[2023-05-10T01:28:23.470+0400][gc,phases     ] GC(12)   Pre Evacuate Collection Set: 0,0ms
[2023-05-10T01:28:23.470+0400][gc,phases     ] GC(12)   Evacuate Collection Set: 19,5ms
[2023-05-10T01:28:23.470+0400][gc,phases     ] GC(12)   Post Evacuate Collection Set: 0,7ms
[2023-05-10T01:28:23.470+0400][gc,phases     ] GC(12)   Other: 0,5ms
[2023-05-10T01:28:23.470+0400][gc,heap       ] GC(12) Eden regions: 266->0(279)
[2023-05-10T01:28:23.470+0400][gc,heap       ] GC(12) Survivor regions: 4->4(34)
[2023-05-10T01:28:23.470+0400][gc,heap       ] GC(12) Old regions: 15->15
[2023-05-10T01:28:23.470+0400][gc,heap       ] GC(12) Humongous regions: 129->129
[2023-05-10T01:28:23.470+0400][gc,metaspace  ] GC(12) Metaspace: 42614K(45184K)->42614K(45184K) NonClass: 36991K(38400K)->36991K(38400K) Class: 5623K(6784K)->5623K(6784K)
[2023-05-10T01:28:23.470+0400][gc            ] GC(12) Pause Young (Normal) (G1 Evacuation Pause) 411M->145M(1024M) 20,806ms
[2023-05-10T01:28:23.470+0400][gc,cpu        ] GC(12) User=0,12s Sys=0,00s Real=0,02s
[2023-05-10T01:28:57.375+0400][gc,start      ] GC(13) Pause Young (Normal) (G1 Evacuation Pause)
[2023-05-10T01:28:57.375+0400][gc,task       ] GC(13) Using 8 workers of 8 for evacuation
[2023-05-10T01:28:57.380+0400][gc,phases     ] GC(13)   Pre Evacuate Collection Set: 0,0ms
[2023-05-10T01:28:57.380+0400][gc,phases     ] GC(13)   Evacuate Collection Set: 4,0ms
[2023-05-10T01:28:57.380+0400][gc,phases     ] GC(13)   Post Evacuate Collection Set: 0,6ms
[2023-05-10T01:28:57.380+0400][gc,phases     ] GC(13)   Other: 0,2ms
[2023-05-10T01:28:57.380+0400][gc,heap       ] GC(13) Eden regions: 279->0(304)
[2023-05-10T01:28:57.380+0400][gc,heap       ] GC(13) Survivor regions: 4->4(36)
[2023-05-10T01:28:57.380+0400][gc,heap       ] GC(13) Old regions: 15->15
[2023-05-10T01:28:57.380+0400][gc,heap       ] GC(13) Humongous regions: 129->129
[2023-05-10T01:28:57.380+0400][gc,metaspace  ] GC(13) Metaspace: 42617K(45184K)->42617K(45184K) NonClass: 36994K(38400K)->36994K(38400K) Class: 5623K(6784K)->5623K(6784K)
[2023-05-10T01:28:57.380+0400][gc            ] GC(13) Pause Young (Normal) (G1 Evacuation Pause) 424M->145M(1024M) 4,889ms
[2023-05-10T01:28:57.380+0400][gc,cpu        ] GC(13) User=0,02s Sys=0,01s Real=0,00s
[2023-05-10T01:29:34.424+0400][gc,start      ] GC(14) Pause Young (Normal) (G1 Evacuation Pause)
[2023-05-10T01:29:34.424+0400][gc,task       ] GC(14) Using 8 workers of 8 for evacuation
[2023-05-10T01:29:34.429+0400][gc,phases     ] GC(14)   Pre Evacuate Collection Set: 0,0ms
[2023-05-10T01:29:34.429+0400][gc,phases     ] GC(14)   Evacuate Collection Set: 3,9ms
[2023-05-10T01:29:34.429+0400][gc,phases     ] GC(14)   Post Evacuate Collection Set: 0,7ms
[2023-05-10T01:29:34.429+0400][gc,phases     ] GC(14)   Other: 0,2ms
[2023-05-10T01:29:34.429+0400][gc,heap       ] GC(14) Eden regions: 304->0(317)
[2023-05-10T01:29:34.429+0400][gc,heap       ] GC(14) Survivor regions: 4->4(39)
[2023-05-10T01:29:34.429+0400][gc,heap       ] GC(14) Old regions: 15->15
[2023-05-10T01:29:34.429+0400][gc,heap       ] GC(14) Humongous regions: 129->129
[2023-05-10T01:29:34.429+0400][gc,metaspace  ] GC(14) Metaspace: 42624K(45184K)->42624K(45184K) NonClass: 37000K(38400K)->37000K(38400K) Class: 5624K(6784K)->5624K(6784K)
[2023-05-10T01:29:34.429+0400][gc            ] GC(14) Pause Young (Normal) (G1 Evacuation Pause) 449M->145M(1024M) 4,862ms
[2023-05-10T01:29:34.429+0400][gc,cpu        ] GC(14) User=0,02s Sys=0,00s Real=0,01s
[2023-05-10T01:30:13.654+0400][gc,start      ] GC(15) Pause Young (Normal) (G1 Evacuation Pause)
[2023-05-10T01:30:13.654+0400][gc,task       ] GC(15) Using 8 workers of 8 for evacuation
[2023-05-10T01:30:13.662+0400][gc,phases     ] GC(15)   Pre Evacuate Collection Set: 0,0ms
[2023-05-10T01:30:13.662+0400][gc,phases     ] GC(15)   Evacuate Collection Set: 6,7ms
[2023-05-10T01:30:13.662+0400][gc,phases     ] GC(15)   Post Evacuate Collection Set: 0,8ms
[2023-05-10T01:30:13.662+0400][gc,phases     ] GC(15)   Other: 0,3ms
[2023-05-10T01:30:13.662+0400][gc,heap       ] GC(15) Eden regions: 317->0(334)
[2023-05-10T01:30:13.662+0400][gc,heap       ] GC(15) Survivor regions: 4->4(41)
[2023-05-10T01:30:13.662+0400][gc,heap       ] GC(15) Old regions: 15->15
[2023-05-10T01:30:13.662+0400][gc,heap       ] GC(15) Humongous regions: 129->129
[2023-05-10T01:30:13.662+0400][gc,metaspace  ] GC(15) Metaspace: 42726K(45184K)->42726K(45184K) NonClass: 37077K(38400K)->37077K(38400K) Class: 5648K(6784K)->5648K(6784K)
[2023-05-10T01:30:13.662+0400][gc            ] GC(15) Pause Young (Normal) (G1 Evacuation Pause) 462M->145M(1024M) 7,998ms
[2023-05-10T01:30:13.662+0400][gc,cpu        ] GC(15) User=0,03s Sys=0,00s Real=0,00s
[2023-05-10T01:30:55.331+0400][gc,start      ] GC(16) Pause Young (Normal) (G1 Evacuation Pause)
[2023-05-10T01:30:55.331+0400][gc,task       ] GC(16) Using 8 workers of 8 for evacuation
[2023-05-10T01:30:55.341+0400][gc,phases     ] GC(16)   Pre Evacuate Collection Set: 0,0ms
[2023-05-10T01:30:55.341+0400][gc,phases     ] GC(16)   Evacuate Collection Set: 7,2ms
[2023-05-10T01:30:55.341+0400][gc,phases     ] GC(16)   Post Evacuate Collection Set: 2,5ms
[2023-05-10T01:30:55.341+0400][gc,phases     ] GC(16)   Other: 0,3ms
[2023-05-10T01:30:55.341+0400][gc,heap       ] GC(16) Eden regions: 334->0(355)
[2023-05-10T01:30:55.341+0400][gc,heap       ] GC(16) Survivor regions: 4->4(43)
[2023-05-10T01:30:55.341+0400][gc,heap       ] GC(16) Old regions: 15->15
[2023-05-10T01:30:55.341+0400][gc,heap       ] GC(16) Humongous regions: 129->129
[2023-05-10T01:30:55.341+0400][gc,metaspace  ] GC(16) Metaspace: 42738K(45184K)->42738K(45184K) NonClass: 37088K(38400K)->37088K(38400K) Class: 5649K(6784K)->5649K(6784K)
[2023-05-10T01:30:55.341+0400][gc            ] GC(16) Pause Young (Normal) (G1 Evacuation Pause) 479M->145M(1024M) 10,069ms
[2023-05-10T01:30:55.341+0400][gc,cpu        ] GC(16) User=0,03s Sys=0,00s Real=0,01s
[2023-05-10T01:31:40.059+0400][gc,start      ] GC(17) Pause Young (Normal) (G1 Evacuation Pause)
[2023-05-10T01:31:40.059+0400][gc,task       ] GC(17) Using 8 workers of 8 for evacuation
[2023-05-10T01:31:40.063+0400][gc,phases     ] GC(17)   Pre Evacuate Collection Set: 0,0ms
[2023-05-10T01:31:40.063+0400][gc,phases     ] GC(17)   Evacuate Collection Set: 2,8ms
[2023-05-10T01:31:40.063+0400][gc,phases     ] GC(17)   Post Evacuate Collection Set: 0,6ms
[2023-05-10T01:31:40.063+0400][gc,phases     ] GC(17)   Other: 0,2ms
[2023-05-10T01:31:40.063+0400][gc,heap       ] GC(17) Eden regions: 355->0(377)
[2023-05-10T01:31:40.063+0400][gc,heap       ] GC(17) Survivor regions: 4->4(45)
[2023-05-10T01:31:40.063+0400][gc,heap       ] GC(17) Old regions: 15->15
[2023-05-10T01:31:40.063+0400][gc,heap       ] GC(17) Humongous regions: 129->129
[2023-05-10T01:31:40.063+0400][gc,metaspace  ] GC(17) Metaspace: 42748K(45184K)->42748K(45184K) NonClass: 37098K(38400K)->37098K(38400K) Class: 5650K(6784K)->5650K(6784K)
[2023-05-10T01:31:40.063+0400][gc            ] GC(17) Pause Young (Normal) (G1 Evacuation Pause) 500M->145M(1024M) 3,769ms
[2023-05-10T01:31:40.063+0400][gc,cpu        ] GC(17) User=0,02s Sys=0,00s Real=0,00s
[2023-05-10T01:32:27.647+0400][gc,start      ] GC(18) Pause Young (Normal) (G1 Evacuation Pause)
[2023-05-10T01:32:27.648+0400][gc,task       ] GC(18) Using 8 workers of 8 for evacuation
[2023-05-10T01:32:27.652+0400][gc,phases     ] GC(18)   Pre Evacuate Collection Set: 0,0ms
[2023-05-10T01:32:27.652+0400][gc,phases     ] GC(18)   Evacuate Collection Set: 2,9ms
[2023-05-10T01:32:27.652+0400][gc,phases     ] GC(18)   Post Evacuate Collection Set: 0,8ms
[2023-05-10T01:32:27.652+0400][gc,phases     ] GC(18)   Other: 0,5ms
[2023-05-10T01:32:27.652+0400][gc,heap       ] GC(18) Eden regions: 377->0(406)
[2023-05-10T01:32:27.652+0400][gc,heap       ] GC(18) Survivor regions: 4->4(48)
[2023-05-10T01:32:27.652+0400][gc,heap       ] GC(18) Old regions: 15->15
[2023-05-10T01:32:27.652+0400][gc,heap       ] GC(18) Humongous regions: 129->129
[2023-05-10T01:32:27.652+0400][gc,metaspace  ] GC(18) Metaspace: 42899K(45568K)->42899K(45568K) NonClass: 37217K(38656K)->37217K(38656K) Class: 5682K(6912K)->5682K(6912K)
[2023-05-10T01:32:27.652+0400][gc            ] GC(18) Pause Young (Normal) (G1 Evacuation Pause) 522M->145M(1024M) 4,320ms
[2023-05-10T01:32:27.652+0400][gc,cpu        ] GC(18) User=0,02s Sys=0,00s Real=0,00s
[2023-05-10T01:33:18.598+0400][gc,start      ] GC(19) Pause Young (Normal) (G1 Evacuation Pause)
[2023-05-10T01:33:18.598+0400][gc,task       ] GC(19) Using 8 workers of 8 for evacuation
[2023-05-10T01:33:18.602+0400][gc,phases     ] GC(19)   Pre Evacuate Collection Set: 0,0ms
[2023-05-10T01:33:18.602+0400][gc,phases     ] GC(19)   Evacuate Collection Set: 2,9ms
[2023-05-10T01:33:18.602+0400][gc,phases     ] GC(19)   Post Evacuate Collection Set: 0,7ms
[2023-05-10T01:33:18.602+0400][gc,phases     ] GC(19)   Other: 0,6ms
[2023-05-10T01:33:18.602+0400][gc,heap       ] GC(19) Eden regions: 406->0(430)
[2023-05-10T01:33:18.602+0400][gc,heap       ] GC(19) Survivor regions: 4->4(52)
[2023-05-10T01:33:18.602+0400][gc,heap       ] GC(19) Old regions: 15->15
[2023-05-10T01:33:18.602+0400][gc,heap       ] GC(19) Humongous regions: 129->129
[2023-05-10T01:33:18.602+0400][gc,metaspace  ] GC(19) Metaspace: 42903K(45568K)->42903K(45568K) NonClass: 37221K(38656K)->37221K(38656K) Class: 5682K(6912K)->5682K(6912K)
[2023-05-10T01:33:18.602+0400][gc            ] GC(19) Pause Young (Normal) (G1 Evacuation Pause) 551M->145M(1024M) 4,313ms
[2023-05-10T01:33:18.602+0400][gc,cpu        ] GC(19) User=0,02s Sys=0,01s Real=0,00s
[2023-05-10T02:13:33.257+0400][gc,heap,exit  ] Heap
[2023-05-10T02:13:33.263+0400][gc,heap,exit  ]  garbage-first heap   total 1048576K, used 561966K [0x00000000c0000000, 0x0000000100000000)
[2023-05-10T02:13:33.263+0400][gc,heap,exit  ]   region size 1024K, 409 young (418816K), 4 survivors (4096K)
[2023-05-10T02:13:33.263+0400][gc,heap,exit  ]  Metaspace       used 43932K, capacity 46517K, committed 46592K, reserved 1089536K
[2023-05-10T02:13:33.263+0400][gc,heap,exit  ]   class space    used 5893K, capacity 7139K, committed 7168K, reserved 1048576K
