[2023-05-09T22:17:20.813+0400][gc,heap] Heap region size: 1M
[2023-05-09T22:17:20.818+0400][gc     ] Using G1
[2023-05-09T22:17:20.818+0400][gc,heap,coops] Heap address: 0x00000000e0000000, size: 512 MB, Compressed Oops mode: 32-bit
[2023-05-09T22:17:20.818+0400][gc,cds       ] Mark closed archive regions in map: [0x00000000fff00000, 0x00000000fff6aff8]
[2023-05-09T22:17:20.818+0400][gc,cds       ] Mark open archive regions in map: [0x00000000ffe00000, 0x00000000ffe47ff8]
[2023-05-09T22:17:21.435+0400][gc,start     ] GC(0) Pause Young (Normal) (G1 Evacuation Pause)
[2023-05-09T22:17:21.435+0400][gc,task      ] GC(0) Using 8 workers of 8 for evacuation
[2023-05-09T22:17:21.442+0400][gc,phases    ] GC(0)   Pre Evacuate Collection Set: 0,0ms
[2023-05-09T22:17:21.442+0400][gc,phases    ] GC(0)   Evacuate Collection Set: 6,7ms
[2023-05-09T22:17:21.442+0400][gc,phases    ] GC(0)   Post Evacuate Collection Set: 0,4ms
[2023-05-09T22:17:21.443+0400][gc,phases    ] GC(0)   Other: 0,5ms
[2023-05-09T22:17:21.443+0400][gc,heap      ] GC(0) Eden regions: 25->0(21)
[2023-05-09T22:17:21.443+0400][gc,heap      ] GC(0) Survivor regions: 0->4(4)
[2023-05-09T22:17:21.443+0400][gc,heap      ] GC(0) Old regions: 2->6
[2023-05-09T22:17:21.443+0400][gc,heap      ] GC(0) Humongous regions: 0->0
[2023-05-09T22:17:21.443+0400][gc,metaspace ] GC(0) Metaspace: 7213K(7680K)->7213K(7680K) NonClass: 6403K(6656K)->6403K(6656K) Class: 810K(1024K)->810K(1024K)
[2023-05-09T22:17:21.443+0400][gc           ] GC(0) Pause Young (Normal) (G1 Evacuation Pause) 25M->7M(512M) 7,647ms
[2023-05-09T22:17:21.443+0400][gc,cpu       ] GC(0) User=0,05s Sys=0,01s Real=0,01s
