[2023-05-10T02:24:22.029+0400][gc,heap] Heap region size: 1M
[2023-05-10T02:24:22.034+0400][gc     ] Using G1
[2023-05-10T02:24:22.034+0400][gc,heap,coops] Heap address: 0x00000000e0000000, size: 512 MB, Compressed Oops mode: 32-bit
[2023-05-10T02:24:22.034+0400][gc,cds       ] Mark closed archive regions in map: [0x00000000fff00000, 0x00000000fff6aff8]
[2023-05-10T02:24:22.034+0400][gc,cds       ] Mark open archive regions in map: [0x00000000ffe00000, 0x00000000ffe47ff8]
[2023-05-10T02:24:22.688+0400][gc,start     ] GC(0) Pause Young (Normal) (G1 Evacuation Pause)
[2023-05-10T02:24:22.688+0400][gc,task      ] GC(0) Using 8 workers of 8 for evacuation
[2023-05-10T02:24:22.696+0400][gc,phases    ] GC(0)   Pre Evacuate Collection Set: 0,0ms
[2023-05-10T02:24:22.696+0400][gc,phases    ] GC(0)   Evacuate Collection Set: 6,1ms
[2023-05-10T02:24:22.696+0400][gc,phases    ] GC(0)   Post Evacuate Collection Set: 1,0ms
[2023-05-10T02:24:22.696+0400][gc,phases    ] GC(0)   Other: 0,9ms
[2023-05-10T02:24:22.696+0400][gc,heap      ] GC(0) Eden regions: 25->0(21)
[2023-05-10T02:24:22.696+0400][gc,heap      ] GC(0) Survivor regions: 0->4(4)
[2023-05-10T02:24:22.696+0400][gc,heap      ] GC(0) Old regions: 2->5
[2023-05-10T02:24:22.696+0400][gc,heap      ] GC(0) Humongous regions: 0->0
[2023-05-10T02:24:22.696+0400][gc,metaspace ] GC(0) Metaspace: 7257K(7680K)->7257K(7680K) NonClass: 6445K(6656K)->6445K(6656K) Class: 811K(1024K)->811K(1024K)
[2023-05-10T02:24:22.696+0400][gc           ] GC(0) Pause Young (Normal) (G1 Evacuation Pause) 25M->7M(512M) 8,116ms
[2023-05-10T02:24:22.696+0400][gc,cpu       ] GC(0) User=0,05s Sys=0,00s Real=0,01s
