[2023-05-09T23:55:15.298+0400][gc,heap] Heap region size: 1M
[2023-05-09T23:55:15.304+0400][gc     ] Using G1
[2023-05-09T23:55:15.304+0400][gc,heap,coops] Heap address: 0x00000000e0000000, size: 512 MB, Compressed Oops mode: 32-bit
[2023-05-09T23:55:15.304+0400][gc,cds       ] Mark closed archive regions in map: [0x00000000fff00000, 0x00000000fff6aff8]
[2023-05-09T23:55:15.304+0400][gc,cds       ] Mark open archive regions in map: [0x00000000ffe00000, 0x00000000ffe47ff8]
[2023-05-09T23:55:15.972+0400][gc,start     ] GC(0) Pause Young (Normal) (G1 Evacuation Pause)
[2023-05-09T23:55:15.973+0400][gc,task      ] GC(0) Using 8 workers of 8 for evacuation
[2023-05-09T23:55:15.979+0400][gc,phases    ] GC(0)   Pre Evacuate Collection Set: 0,0ms
[2023-05-09T23:55:15.979+0400][gc,phases    ] GC(0)   Evacuate Collection Set: 6,1ms
[2023-05-09T23:55:15.979+0400][gc,phases    ] GC(0)   Post Evacuate Collection Set: 0,4ms
[2023-05-09T23:55:15.979+0400][gc,phases    ] GC(0)   Other: 0,7ms
[2023-05-09T23:55:15.979+0400][gc,heap      ] GC(0) Eden regions: 25->0(21)
[2023-05-09T23:55:15.979+0400][gc,heap      ] GC(0) Survivor regions: 0->4(4)
[2023-05-09T23:55:15.979+0400][gc,heap      ] GC(0) Old regions: 2->5
[2023-05-09T23:55:15.979+0400][gc,heap      ] GC(0) Humongous regions: 0->0
[2023-05-09T23:55:15.979+0400][gc,metaspace ] GC(0) Metaspace: 7221K(7680K)->7221K(7680K) NonClass: 6411K(6656K)->6411K(6656K) Class: 809K(1024K)->809K(1024K)
[2023-05-09T23:55:15.979+0400][gc           ] GC(0) Pause Young (Normal) (G1 Evacuation Pause) 25M->7M(512M) 7,308ms
[2023-05-09T23:55:15.979+0400][gc,cpu       ] GC(0) User=0,04s Sys=0,00s Real=0,01s
[2023-05-10T01:06:38.238+0400][gc,start     ] GC(1) Pause Young (Normal) (G1 Evacuation Pause)
[2023-05-10T01:06:38.239+0400][gc,task      ] GC(1) Using 8 workers of 8 for evacuation
[2023-05-10T01:06:38.367+0400][gc,mmu       ] GC(1) MMU target violated: 21,0ms (20,0ms/21,0ms)
[2023-05-10T01:06:38.367+0400][gc,phases    ] GC(1)   Pre Evacuate Collection Set: 56,4ms
[2023-05-10T01:06:38.367+0400][gc,phases    ] GC(1)   Evacuate Collection Set: 67,5ms
[2023-05-10T01:06:38.367+0400][gc,phases    ] GC(1)   Post Evacuate Collection Set: 2,4ms
[2023-05-10T01:06:38.367+0400][gc,phases    ] GC(1)   Other: 5,0ms
[2023-05-10T01:06:38.367+0400][gc,heap      ] GC(1) Eden regions: 21->0(24)
[2023-05-10T01:06:38.367+0400][gc,heap      ] GC(1) Survivor regions: 4->1(4)
[2023-05-10T01:06:38.367+0400][gc,heap      ] GC(1) Old regions: 5->9
[2023-05-10T01:06:38.367+0400][gc,heap      ] GC(1) Humongous regions: 0->0
[2023-05-10T01:06:38.367+0400][gc,metaspace ] GC(1) Metaspace: 9446K(9856K)->9446K(9856K) NonClass: 8473K(8704K)->8473K(8704K) Class: 972K(1152K)->972K(1152K)
[2023-05-10T01:06:38.367+0400][gc           ] GC(1) Pause Young (Normal) (G1 Evacuation Pause) 28M->8M(512M) 129,699ms
[2023-05-10T01:06:38.367+0400][gc,cpu       ] GC(1) User=0,13s Sys=0,03s Real=0,13s
[2023-05-10T01:12:43.997+0400][gc,heap,exit ] Heap
[2023-05-10T01:12:43.997+0400][gc,heap,exit ]  garbage-first heap   total 524288K, used 11739K [0x00000000e0000000, 0x0000000100000000)
[2023-05-10T01:12:43.997+0400][gc,heap,exit ]   region size 1024K, 5 young (5120K), 1 survivors (1024K)
[2023-05-10T01:12:43.997+0400][gc,heap,exit ]  Metaspace       used 9453K, capacity 9771K, committed 9856K, reserved 1058816K
[2023-05-10T01:12:43.997+0400][gc,heap,exit ]   class space    used 973K, capacity 1120K, committed 1152K, reserved 1048576K
