[2023-05-09T22:36:58.255+0400][gc,heap] Heap region size: 1M
[2023-05-09T22:36:58.260+0400][gc     ] Using G1
[2023-05-09T22:36:58.260+0400][gc,heap,coops] Heap address: 0x00000000e0000000, size: 512 MB, Compressed Oops mode: 32-bit
[2023-05-09T22:36:58.261+0400][gc,cds       ] Mark closed archive regions in map: [0x00000000fff00000, 0x00000000fff6aff8]
[2023-05-09T22:36:58.261+0400][gc,cds       ] Mark open archive regions in map: [0x00000000ffe00000, 0x00000000ffe47ff8]
[2023-05-09T22:36:58.919+0400][gc,start     ] GC(0) Pause Young (Normal) (G1 Evacuation Pause)
[2023-05-09T22:36:58.920+0400][gc,task      ] GC(0) Using 8 workers of 8 for evacuation
[2023-05-09T22:36:58.929+0400][gc,phases    ] GC(0)   Pre Evacuate Collection Set: 0,0ms
[2023-05-09T22:36:58.929+0400][gc,phases    ] GC(0)   Evacuate Collection Set: 8,5ms
[2023-05-09T22:36:58.929+0400][gc,phases    ] GC(0)   Post Evacuate Collection Set: 0,3ms
[2023-05-09T22:36:58.929+0400][gc,phases    ] GC(0)   Other: 0,9ms
[2023-05-09T22:36:58.929+0400][gc,heap      ] GC(0) Eden regions: 25->0(21)
[2023-05-09T22:36:58.929+0400][gc,heap      ] GC(0) Survivor regions: 0->4(4)
[2023-05-09T22:36:58.929+0400][gc,heap      ] GC(0) Old regions: 2->5
[2023-05-09T22:36:58.929+0400][gc,heap      ] GC(0) Humongous regions: 0->0
[2023-05-09T22:36:58.929+0400][gc,metaspace ] GC(0) Metaspace: 7265K(7680K)->7265K(7680K) NonClass: 6453K(6656K)->6453K(6656K) Class: 811K(1024K)->811K(1024K)
[2023-05-09T22:36:58.929+0400][gc           ] GC(0) Pause Young (Normal) (G1 Evacuation Pause) 25M->7M(512M) 9,896ms
[2023-05-09T22:36:58.929+0400][gc,cpu       ] GC(0) User=0,05s Sys=0,01s Real=0,01s
[2023-05-09T22:43:18.335+0400][gc,heap,exit ] Heap
[2023-05-09T22:43:18.336+0400][gc,heap,exit ]  garbage-first heap   total 524288K, used 19907K [0x00000000e0000000, 0x0000000100000000)
[2023-05-09T22:43:18.336+0400][gc,heap,exit ]   region size 1024K, 17 young (17408K), 4 survivors (4096K)
[2023-05-09T22:43:18.336+0400][gc,heap,exit ]  Metaspace       used 8930K, capacity 9242K, committed 9344K, reserved 1056768K
[2023-05-09T22:43:18.336+0400][gc,heap,exit ]   class space    used 971K, capacity 1088K, committed 1152K, reserved 1048576K
