[2023-05-10T01:23:08.827+0400][gc,heap] Heap region size: 1M
[2023-05-10T01:23:08.832+0400][gc     ] Using G1
[2023-05-10T01:23:08.832+0400][gc,heap,coops] Heap address: 0x00000000e0000000, size: 512 MB, Compressed Oops mode: 32-bit
[2023-05-10T01:23:08.832+0400][gc,cds       ] Mark closed archive regions in map: [0x00000000fff00000, 0x00000000fff6aff8]
[2023-05-10T01:23:08.832+0400][gc,cds       ] Mark open archive regions in map: [0x00000000ffe00000, 0x00000000ffe47ff8]
[2023-05-10T01:23:09.192+0400][gc,start     ] GC(0) Pause Young (Normal) (G1 Evacuation Pause)
[2023-05-10T01:23:09.192+0400][gc,task      ] GC(0) Using 8 workers of 8 for evacuation
[2023-05-10T01:23:09.199+0400][gc,phases    ] GC(0)   Pre Evacuate Collection Set: 0,0ms
[2023-05-10T01:23:09.199+0400][gc,phases    ] GC(0)   Evacuate Collection Set: 6,3ms
[2023-05-10T01:23:09.199+0400][gc,phases    ] GC(0)   Post Evacuate Collection Set: 0,4ms
[2023-05-10T01:23:09.199+0400][gc,phases    ] GC(0)   Other: 0,7ms
[2023-05-10T01:23:09.199+0400][gc,heap      ] GC(0) Eden regions: 25->0(21)
[2023-05-10T01:23:09.199+0400][gc,heap      ] GC(0) Survivor regions: 0->4(4)
[2023-05-10T01:23:09.199+0400][gc,heap      ] GC(0) Old regions: 2->5
[2023-05-10T01:23:09.199+0400][gc,heap      ] GC(0) Humongous regions: 0->0
[2023-05-10T01:23:09.199+0400][gc,metaspace ] GC(0) Metaspace: 7255K(7680K)->7255K(7680K) NonClass: 6443K(6656K)->6443K(6656K) Class: 812K(1024K)->812K(1024K)
[2023-05-10T01:23:09.199+0400][gc           ] GC(0) Pause Young (Normal) (G1 Evacuation Pause) 25M->7M(512M) 7,448ms
[2023-05-10T01:23:09.199+0400][gc,cpu       ] GC(0) User=0,05s Sys=0,00s Real=0,01s
[2023-05-10T02:13:29.134+0400][gc,heap,exit ] Heap
[2023-05-10T02:13:29.143+0400][gc,heap,exit ]  garbage-first heap   total 524288K, used 23028K [0x00000000e0000000, 0x0000000100000000)
[2023-05-10T02:13:29.143+0400][gc,heap,exit ]   region size 1024K, 20 young (20480K), 4 survivors (4096K)
[2023-05-10T02:13:29.143+0400][gc,heap,exit ]  Metaspace       used 9222K, capacity 9578K, committed 9856K, reserved 1058816K
[2023-05-10T02:13:29.143+0400][gc,heap,exit ]   class space    used 972K, capacity 1120K, committed 1152K, reserved 1048576K
